Relatório: levantamento de pacientes com indicação para tratamento com TAF
…
Pressupostos

Outliers

## # A tibble: 24 x 5
##    creat_moment       record_id creat is.outlier is.extreme
##    <fct>              <fct>     <dbl> <lgl>      <lgl>     
##  1 creat_previous_tdf 58        11.4  TRUE       TRUE      
##  2 creat_previous_tdf 62         1.79 TRUE       FALSE     
##  3 creat_previous_tdf 189        1.54 TRUE       FALSE     
##  4 creat_previous_tdf 215        1.51 TRUE       FALSE     
##  5 creat_previous_tdf 226        1.54 TRUE       FALSE     
##  6 creat_after_tdf    33         0.35 TRUE       FALSE     
##  7 creat_after_tdf    41         1.58 TRUE       FALSE     
##  8 creat_after_tdf    58         9.52 TRUE       TRUE      
##  9 creat_after_tdf    60         1.44 TRUE       FALSE     
## 10 creat_after_tdf    128        2.56 TRUE       TRUE      
## # ... with 14 more rows
## # i Use `print(n = ...)` to see more rows
…
## # A tibble: 3 x 4
##   mdrd_moment         variable statistic        p
##   <fct>               <chr>        <dbl>    <dbl>
## 1 clcr_previous_tdf   mdrd         0.956 2.35e- 6
## 2 clcr_after_tdf_mdrd mdrd         0.869 6.08e-13
## 3 clcr_last_tdf_mdrd2 mdrd         0.925 2.67e- 9

p > 0.05 indica que há distribuição normal

p < 0.05 indica que não há distribuição normal

Outliers

## # A tibble: 24 x 5
##    mdrd_moment       record_id  mdrd is.outlier is.extreme
##    <fct>             <fct>     <dbl> <lgl>      <lgl>     
##  1 clcr_previous_tdf 3         149.  TRUE       FALSE     
##  2 clcr_previous_tdf 29        146.  TRUE       FALSE     
##  3 clcr_previous_tdf 49        156.  TRUE       FALSE     
##  4 clcr_previous_tdf 58          4.8 TRUE       FALSE     
##  5 clcr_previous_tdf 90        155   TRUE       FALSE     
##  6 clcr_previous_tdf 126       157.  TRUE       FALSE     
##  7 clcr_previous_tdf 151       179.  TRUE       FALSE     
##  8 clcr_previous_tdf 250       154.  TRUE       FALSE     
##  9 clcr_previous_tdf 254       156.  TRUE       FALSE     
## 10 clcr_previous_tdf 260       152.  TRUE       FALSE     
## # ... with 14 more rows
## # i Use `print(n = ...)` to see more rows
…
